( 
;AP[Igc98:0.99f] GM[1] FF[4] 
;C[Igc98 Generated Sgf File] 
PW[Cho Hunhyun] WR[Kisung] 
PB[Lee Changho] BR[Myungin] 
SZ[19] KM[5.5] HA[0] 
RE[B+6.5] 
;B[pd];W[dd];B[pp];W[dp];B[fq];W[ip];B[cn];W[fp]
;B[cq];W[cp];B[dq];W[eq];B[er];W[ep];B[fr];W[ck]
;B[gp];W[go];B[ho];W[hp];B[gq];W[gn];B[hn];W[gm]
;B[hm];W[gl];B[jn];W[hl];B[kp];W[mq];B[lq];W[jd]
;B[cf];W[ch];B[bp];W[bo];B[bq];W[co];B[cc];W[cd]
;B[dc];W[ed];B[bd];W[be];B[bc];W[ce];B[fc];W[fd]
;B[gc];W[gd];B[jl];W[qj];B[ql];W[qq];B[pq];W[qp]
;B[po];W[qo];B[qn];W[rn];B[rm];W[pn];B[qm];W[pr]
;B[or];W[qr];B[nq];W[pf];B[ro];W[rp];B[sn];E[rn];W[np]
;B[mr];W[sr];B[nd];W[qd];B[qc];W[qe];B[hd];W[ec]
;B[eb];W[hc];B[he];W[hb];B[gb];W[id];B[ig];W[lc]
;B[mc];W[ld];B[rc];W[jh];B[kf];W[kg];B[lf];W[lg]
;B[bf];W[af];B[jg];W[mf];B[ii];W[ih];B[hh];W[kh]
;B[hi];W[hg];B[gg];W[hf];B[dh];W[dg];B[eh];W[ci]
;B[gf];W[if];B[jj];W[im];B[in];W[oc];B[ob];W[oe]
;B[od];W[ok];B[on];W[mk];B[ej];W[ga];B[fb];W[ge]
;B[el];W[dm];B[em];W[en];B[lb];W[kb];B[lj];W[mj]
;B[jf];W[ie];E[hd][he];B[li];W[mg];B[mi];W[ni];B[nh];W[oi]
;B[rk];W[rj];B[df];W[ef];B[eg];W[cg];B[ff];W[ee]
;B[dl];W[cl];B[dj];W[dn];B[ad];W[ae];B[mm];W[mb]
;B[nb];W[la];E[lb];B[cj];W[bj];B[bi];W[bh];B[ao];W[an]
;B[ap];W[bn];B[sd];W[rf];B[mh];W[nm];B[nn];W[ll]
;B[lm];W[kl];B[jm];W[gj];B[gi];W[fj];B[il];E[im];W[fi]
;B[fh];W[om];B[pm];E[pn];W[md];B[nc];W[ik];B[jk];W[ml]
;B[sj];W[si];B[sk];W[rh];B[oh];W[ph];B[pk];W[pj]
;B[ne];W[me];B[cb];W[ij];B[ji];W[km];B[kn];W[og]
;B[fa];W[ha];B[hj];W[hk];B[ol];W[nl];B[pl];W[os]
;B[ns];W[ps];B[rd];W[re];B[na];W[sp];B[se];W[so]
;B[rn];W[sf];B[fm];W[fn];B[ma];W[lb];B[fk];W[gk]
;B[pe];W[of]
) 
