( 
;AP[Igc98:0.99f] GM[1] FF[4] 
;C[Igc98 Generated Sgf File] 
PW[Cho Hunhyun] WR[9 dan] 
PB[Kobayashi Koichi] BR[9 dan] 
SZ[19] KM[5.5] HA[0] 
RE[B+R] 
;B[pd];W[dp];B[pq];W[cc];B[qo];W[kq];B[cn];W[fp]
;B[bp];W[cq];B[ck];W[nq];B[nc];W[ci];B[qi];W[oo]
;B[fd];W[df];B[jd];W[qd];B[qe];W[pc];B[od];W[rc]
;B[re];W[ob];B[nb];W[qb];B[nj];W[hd];B[dd];W[cd]
;B[de];W[ce];B[ef];W[dg];B[ie];W[he];B[hf];W[gf]
;B[ge];W[jc];B[if];W[hc];B[gg];W[fb];B[lp];W[pr]
;B[qq];W[oq];B[lq];W[qr];B[rr];W[pn];B[rm];W[qm]
;B[qn];W[pm];B[rl];W[rq];B[rp];W[lr];B[mr];W[kr]
;B[mq];W[nr];B[kp];W[ms];B[jp];W[lm];B[hq];W[mk]
;B[mj];W[lj];B[li];W[kj];B[nk];W[kn];B[jq];W[gr]
;B[ls];W[ks];E[ls];B[jr];W[kc];B[mn];W[nl];B[nn];W[nm]
;B[on];W[po];B[om];W[ol];B[pl];W[pp];B[qp];W[rs]
;B[sr];W[no];B[mo];W[np];B[gp];W[fo];B[fq];W[gq]
;B[ho];W[go];B[hp];W[eq];B[jm];W[jl];B[il];W[im]
;B[jn];W[in];B[jo];W[mp];B[lo];W[ik];B[hl];W[hk]
;B[kl];W[jk];B[gl];W[ll];B[mm];W[ml];B[km];W[gk]
;B[fl];W[fk];B[el];W[ki];B[lh];W[kh];B[lg];W[ql]
;B[pk];W[qk];B[eb];W[fc];B[ec];W[lb];B[qj];W[ok]
;B[pj];W[le];B[ii];W[ih];B[hh];W[ek];B[dk];W[ei]
;B[bj];W[mf];B[ng];W[mg];B[nh];W[bq];B[rd];W[qc]
;B[bh];W[oj];B[oi];W[mi];B[ni];W[bi];B[ai];W[ch]
;B[bg];W[bf];B[rk];W[dm];B[cm];W[kg];B[jh];W[mh]
;B[ln];W[lk];B[co];W[ne];B[oe];W[nf];B[of];W[ns]
;B[hr];W[fr];E[fq];B[fa];W[gb];B[ca];W[gm];B[gn];W[fn]
;B[hn];W[fm];B[hm];W[ap];B[ao];W[aq];B[em];W[dn]
) 
