( 
;AP[Igc98:0.99f] GM[1] FF[4] 
;C[Igc98 Generated Sgf File] 
PW[Otake Hideo] WR[9 dan] 
PB[Cho Hunhyun] BR[9 dan] 
SZ[19] KM[5.5] HA[0] 
RE[B+R] 
;B[pd];W[dd];B[pq];W[dq];B[do];W[co];B[cn];W[cp]
;B[dn];W[fq];B[dj];W[ch];B[pk];W[nc];B[lc];W[ld]
;B[kd];W[le];B[mc];W[nd];B[of];W[nb];B[ic];W[qc]
;B[pc];W[pb];B[qd];W[rc];B[ob];W[qa];B[cf];W[hc]
;B[hd];W[gd];B[gc];W[hb];B[gb];W[ib];B[ec];W[jc]
;B[ge];W[fd];B[ed];W[he];B[id];W[fe];B[jb];W[jd]
;B[ie];W[kb];B[ee];W[gf];E[ge];B[ff];W[fg];B[ef];W[hg]
;B[je];W[kc];B[fc];W[ge];B[jg];W[eh];B[gh];W[gg]
;B[ke];W[lg];B[lb];W[ja];E[jb];B[la];W[ka];B[ha];W[md]
;B[ga];W[ma];B[ji];W[ej];B[ek];W[fj];B[pi];W[mb];E[lc][mc][lb][la]
;B[lh];W[qf];B[pf];W[mh];B[li];W[re];B[di];W[dh]
;B[bi];W[bh];B[bj];W[hi];B[po];W[mi];B[kg];W[ng]
;B[qg];W[lj];B[kj];W[ih];B[lf];W[mg];B[jh];W[lk]
;B[jl];W[fk];B[el];W[hl];B[km];W[rg];B[qh];W[qj]
;B[qk];W[rh];B[qi];W[kp];B[mq];W[qq];B[qp];W[pr]
;B[qr];W[oq];B[rq];E[qq];W[mp];B[np];W[nq];B[op];W[ij]
;B[kk];W[ll];B[ik];W[hk];B[mr];W[mo];B[jo];W[om]
;B[pm];W[ko];B[im];W[ri];B[rj];W[sj];B[rk];W[oj]
;B[pj];E[qj];W[gn];B[jp];W[bd];B[be];W[ce];B[bf];W[dc]
;B[bb];W[bc];B[db];W[cb];B[ca];W[cd];B[cc];E[cb];W[em]
;B[cb];W[dm];B[cm];W[dl];B[cl];W[jq];B[iq];W[dk]
;B[ho];W[ck];B[bk];W[ao];B[dp];W[ep];B[cq];W[bq]
;B[cr];W[br];B[bn];W[kn];B[jn];W[jr];B[ir];W[lm]
;B[gr];W[dr];B[gq];W[ai];B[an];W[bo];B[al];W[kl]
;B[jm];W[aj];B[bm];W[sk];B[qe];W[rf];B[sl];W[si]
;B[ql];W[on];B[ok];W[fr];B[lr];W[kr];B[nl];W[nj]
;B[oc];W[oa];B[ii];W[oh];B[oi];W[pn];B[qn];W[oo]
;B[jj];W[hj];B[ig];W[hh];B[ei];W[fi];B[ls];W[no]
;B[pp]
) 
