( 
;AP[Igc98:0.99f] GM[1] FF[4] 
;C[Igc98 Generated Sgf File] 
PW[Cho Hunhyun] WR[9 dan] 
PB[Jimmy Cha] BR[4 dan] 
SZ[19] KM[0.5] HA[0] 
RE[W+4.5] 
;B[qd];W[dc];B[pp];W[dp];B[oc];W[qj];B[de];W[ee]
;B[ef];W[ed];B[dg];W[qg];B[cn];W[fq];B[bp];W[dk]
;B[cq];W[dn];B[cm];W[dm];B[kp];W[nq];B[oq];W[np]
;B[pn];W[ip];B[nn];W[lo];B[ko];W[mn];B[io];W[ho]
;B[no];W[mo];B[lq];W[mq];B[nm];W[mm];B[km];W[mk]
;B[iq];W[hp];B[pj];W[qk];B[nl];W[lm];B[kl];W[lk]
;B[jj];W[lh];B[hn];W[in];B[im];W[jo];E[io];B[kn];W[hm]
;B[il];W[rn];B[rp];W[ff];B[fg];W[gg];B[gf];W[fe]
;B[fh];W[hf];B[gh];W[ge];E[gf];B[jc];W[lc];B[kd];W[nc]
;B[nd];W[ob];B[od];W[pb];B[mc];W[nb];B[nh];W[kj]
;B[mb];W[rc];B[jh];W[kg];B[if];W[ki];B[gn];W[ji]
;B[ih];W[ij];B[ii];W[jk];E[jj];B[gl];W[fm];B[gm];W[jq]
;B[jr];W[ir];B[kq];W[hq];E[iq];B[fk];W[hk];B[hl];E[hm];W[ng]
;B[og];W[mg];B[pg];W[qh];B[qc];W[qb];B[rd];W[rb]
;B[nj];W[lf];B[rl];W[ql];B[rm];W[qm];B[qn];W[rk]
;B[me];W[jf];B[ie];W[ke];B[cc];W[cb];B[cd];W[bb]
;B[gb];W[eb];B[le];W[jg];B[ig];W[je];B[ro];W[rf]
;B[dq];W[cl];B[ep];W[co];B[bo];W[bl];B[eo];W[ch]
;B[jp];W[gr];B[er];W[fr];B[do];W[bf];B[cg];W[bg]
;B[ci];W[di];B[dh];W[bh];B[iq];E[jq];W[is];B[el];W[eq]
;B[dl];W[ei];B[dr];W[fp];B[nr];W[mr];B[or];W[ic]
;B[jd];W[hc];B[id];W[bn];B[cp];E[dp][co];W[bm];B[kh];W[kk]
;B[ik];W[gj];B[fj];W[mi];B[ri];W[qi];B[oi];W[mj]
;B[co];W[jb];B[kb];W[ib];B[hd];W[gc];B[bc];W[ma]
;B[la];W[na];B[lb];W[be];B[gd];W[fd];B[rh];W[se]
;B[sd];W[re];B[ab];W[dd];B[ce];W[sl];B[sn];E[rn];W[sg]
;B[an];W[cj];B[qf];W[qe];B[pf];W[rg];B[mh];W[ni]
;B[oh];W[li];B[nf];W[pe];B[mf];W[lg];B[oe];W[cf]
;B[df];W[eh];B[eg];W[hi];B[ja];W[ia];B[gk];W[hj]
;B[ej];W[dj];B[ba];W[ca];B[hg];W[gf];B[sc];W[sb]
;B[nk];W[pk];B[ok];W[am];B[ao];W[pm];B[om];W[op]
;B[oo];W[lr];B[kr];W[jl];B[jm];W[es];B[ds];W[fs]
;B[go];W[gp];B[pi];W[ns];B[os];W[ms];B[fi];W[hh]
;B[jq];W[aa];E[ba];B[ac];W[ae];B[ka];W[sk];B[sm];W[fo]
;B[fn];W[ba]
) 
