( 
;AP[Igc98:0.99f] GM[1] FF[4] 
;C[Igc98 Generated Sgf File] 
PW[Cho Hunhyun] WR[] 
PB[Nie Weiping] BR[] 
SZ[19] KM[7.5] HA[0] 
RE[W+3.5] 
;B[pd];W[dp];B[qp];W[dc];B[fq];W[op];B[cn];W[dn]
;B[dm];W[en];B[co];W[cp];B[cj];W[jq];B[dr];W[hq]
;B[oq];W[nq];B[pq];W[np];B[gq];W[hp];B[fo];W[ep]
;B[go];W[cm];B[bm];W[cl];B[bl];W[ck];B[bk];W[el]
;B[dj];W[cr];B[ho];W[jn];B[hl];W[ek];B[fm];W[em]
;B[io];W[kp];B[ce];W[qo];B[ro];W[rn];B[qn];W[po]
;B[rm];W[rp];B[sn];E[rn];W[qq];B[pj];W[de];B[df];W[cf]
;B[bd];W[ee];B[bf];W[cg];B[dg];W[jc];B[cc];W[cb]
;B[lc];W[qc];B[qd];W[pc];B[nc];W[oc];B[od];W[nb]
;B[mb];W[nd];B[mc];W[rd];B[re];W[rc];B[qf];W[je]
;B[ob];W[pb];B[na];E[nb];W[ra];B[rq];W[pp];E[qp];B[qr];W[qp]
;B[rr];W[ol];B[nr];W[mr];B[sp];W[jl];B[hr];W[ir]
;B[hj];W[nj];B[gg];W[ge];B[bq];W[er];B[bp];W[dq]
;B[bb];W[dd];B[cd];W[fg];B[fh];W[eg];B[dh];W[ql]
;B[pn];W[pi];B[qi];W[qj];B[rj];W[qk];B[qh];W[on]
;B[kb];W[jb];B[oi];W[ni];B[gf];W[fe];B[jj];W[ik]
;B[hk];W[ij];B[ii];W[ji];B[jm];W[km];B[im];W[kj]
;B[jh];W[ki];B[ig];W[db];B[id];W[jd];B[he];W[hc]
;B[il];W[jk];E[jj];B[pm];W[om];B[nh];W[mh];B[ng];W[oj]
;B[ph];E[pi];W[ns];B[rk];W[br];B[or];W[os];B[pr];W[hi]
;B[ih];W[fi];B[gh];W[eh];B[ei];W[ej];B[di];W[fj]
;B[gi];W[le]
) 
