( 
;AP[Igc98:0.99f] GM[1] FF[4] 
;C[Igc98 Generated Sgf File] 
PW[Cho Hunhyun] WR[9 dan] 
PB[Yoda Norimoto] BR[8 dan] 
SZ[19] KM[5.5] HA[0] 
RE[B+5.5] 
;B[pd];W[dd];B[pq];W[dp];B[qk];W[nc];B[pf];W[kd]
;B[fc];W[ec];B[fd];W[df];B[ic];W[jb];B[je];W[jd]
;B[id];W[lf];B[ib];W[pb];B[md];W[mc];B[jc];W[kc]
;B[fq];W[jp];B[cn];W[fp];B[gp];W[fo];B[dq];W[eq]
;B[er];W[ep];B[dr];W[gq];B[fr];W[co];B[hq];W[cj]
;B[go];W[gn];B[fn];W[dn];B[fm];W[hn];B[io];W[ho]
;B[hp];W[ip];B[dm];W[bn];B[cm];W[bm];B[jo];W[im]
;B[ko];W[kp];B[ir];W[lo];B[km];W[mp];B[ln];W[mn]
;B[mm];W[nn];B[lq];W[lp];B[ck];W[bk];B[dk];W[ci]
;B[pn];W[nm];B[ml];W[nl];B[mk];W[ik];B[nk];W[pm]
;B[qm];W[po];B[qn];W[pp];B[qq];W[oq];B[or];W[nq]
;B[nr];W[fk];B[mq];W[pk];B[pj];W[ql];B[rl];W[pl]
;B[qj];W[rk];B[rm];W[oj];B[ok];W[no];B[hl];W[jm]
;B[gj];W[oi];B[qh];W[ph];B[qi];W[kl];B[nh];W[fj]
;B[gk];W[fi];B[fl];W[og];B[gi];W[mi];B[ni];W[nj]
;B[mj];W[mh];B[jj];W[kn];B[jn];E[kn];W[in];B[fh];W[ij]
;B[jk];W[lj];B[lk];W[li];B[il];W[kk];B[jl];W[kj]
;B[ch];W[bi];B[cc];W[cd];B[eb];W[eh];B[bc];W[qc]
;B[qd];W[fg];B[gh];W[bd];B[ei];W[eg];B[rc];W[rb]
;B[pc];W[qb];B[bp];W[bo];B[di];W[dj];B[ej];W[dh]
;B[ek];E[fk][fj][fi];W[cq];B[bq];W[cr];B[br];W[cp];B[cs];W[rd]
;B[re];W[sc];E[rc];B[of];W[ng];B[ad];W[ae];B[ac];W[bf]
;B[kq];W[kb];B[jh];W[ih];B[ii];W[ig];B[jg];W[if]
;B[ie];W[db];B[dc];W[ed];B[cb];W[fb];B[da];E[db];W[fe]
;B[hf];W[he];B[hd];W[hg];B[gf];W[gg];B[ge];E[he];W[se]
;B[rf];W[ia];B[ha];W[ja];B[hb];W[ff];B[en];W[cl]
;B[dl];W[bl];B[oc];W[ob];B[nd];W[ne];B[oe];W[hi]
;B[ji];W[hh];B[hj];W[qp];B[rp];W[ro];B[qo];W[oo]
;B[rq];W[sf];B[sg];W[sd];B[qg];W[iq];B[hr];W[ld]
;B[me];W[nf];B[ao];W[an];B[ap];W[jq];B[jr];W[on]
;B[gm];W[kn];E[io][jo][ko][jn];B[do];E[dn];W[eo];B[mf];W[lg];B[kh];W[dn];E[do]
;B[pg];W[do]
) 
