( 
;AP[Igc98:0.99f] GM[1] FF[4] 
;C[Igc98 Generated Sgf File] 
PW[Nie Weiping] WR[9p] 
PB[Cho Hunhyun] BR[9p] 
SZ[19] KM[0.5] HA[0] 
RE[B+8.5] 
;B[pd];W[dd];B[pp];W[dp];B[fq];W[hq];B[hp];W[ip]
;B[ho];W[gq];B[fp];W[dr];B[do];W[cp];B[fr];W[bn]
;B[iq];W[nq];B[jq];W[pn];B[oq];W[np];B[oo];W[op]
;B[po];W[pq];B[qq];W[or];E[oq];B[pr];W[kp];B[jp];W[qj]
;B[qh];W[qn];B[no];W[nm];B[oq];E[pq];W[jc];B[nc];W[pq];E[oq]
;B[mn];W[qf];B[oq];E[pq];W[of];B[oh];W[oj];B[mh];W[mf]
;B[kd];W[jd];B[kf];W[je];B[ke];W[ig];B[cf];W[cd]
;B[he];W[jf];B[kg];W[od];B[pc];W[gg];B[ee];W[eg]
;B[ed];W[eb];B[de];W[ch];B[cb];W[bb];B[bh];W[bi]
;B[bc];W[bd];B[ab];W[ba];B[ca];W[ec];B[ad];W[be]
;B[bf];W[cc];B[ae];W[ac];E[bc];B[ci];W[di];B[bc];E[ac];W[gc]
;B[ce];W[ac];E[bc];B[cj];W[cg];B[bc];E[ac];W[dc];B[gd];W[hc]
;B[bg];W[bj];B[fg];W[fh];B[ff];W[gh];B[fd];W[ac];E[bc]
;B[ef];W[eh];B[bc];E[ac];W[oc];B[aa];E[bb][ba];W[nd];B[rd];W[pe]
;B[ki];W[mj];B[ob];W[nb];B[pb];W[mc];E[nc];B[kk];W[ll]
;B[ql];W[qk];B[rf];W[rg];B[re];W[qg];B[kl];W[lm]
;B[ko];W[pq];E[oq];B[qr];W[jn];B[il];W[hn];B[gl];W[ln]
;B[lo];W[jm];B[hj];W[gn];B[ck];W[ii];B[lj];W[mi]
;B[li];W[jj];B[ij];W[ji];B[dl]
) 
