( 
;AP[Igc98:0.99f] GM[1] FF[4] 
;C[Igc98 Generated Sgf File] 
PW[Cho Hunhyun] WR[9 dan] 
PB[Lee Changho] BR[Kisung] 
SZ[19] KM[5.5] HA[0] 
RE[W+R] 
;B[qd];W[dd];B[pq];W[oc];B[dp];W[qo];B[pf];W[mp]
;B[op];W[pm];B[qp];W[po];B[rp];W[qi];B[mc];W[md]
;B[ld];W[nd];B[kc];W[qc];B[rc];W[pd];B[qe];W[mf]
;B[fc];W[le];B[ke];W[kf];B[je];W[jf];B[ie];W[if]
;B[fe];W[ec];B[fb];W[df];B[gq];W[dk];B[hf];W[hg]
;B[gf];W[cn];B[ce];W[cf];B[de];W[be];B[cd];W[bd]
;B[cc];W[cq];B[dq];W[cp];B[do];W[co];B[ef];W[bc]
;B[bb];W[dh];B[jq];W[mn];B[eh];W[di];B[qb];W[jo]
;B[lg];W[lf];B[oi];W[og];B[lj];W[pb];B[pc];E[qc];W[cb]
;B[db];W[qc];E[pc];B[rb];W[rf];B[re];W[nj];B[oj];W[nk]
;B[pg];W[oh];B[ni];W[ph];B[mi];W[jj];B[qj];W[rj]
;B[nl];W[qk];B[jk];W[ik];B[jl];W[ll];B[kj];W[ij]
;B[il];W[ho];B[ok];W[hq];B[hr];W[gr];B[fr];W[ir]
;B[gs];E[gr];W[iq];B[mq];W[lq];B[nq];W[ml];B[kl];W[fp]
;B[gp];W[go];B[om];W[dr];B[er];W[cr];B[fo];W[eo]
;B[fn];W[dn];B[fq];W[ep];B[hp];W[ip];B[in];W[io]
;B[es];W[nm];B[ol];W[on];B[mk];W[lr]
) 
