( 
;AP[Igc98:0.99f] GM[1] FF[4] 
;C[Igc98 Generated Sgf File] 
PW[O Rissei] WR[9 dan] 
PB[Cho Hunhyun] BR[9 dan] 
SZ[19] KM[5.5] HA[0] 
RE[W+3.5] 
;B[pd];W[pp];B[dd];W[cp];B[ep];W[eq];B[fq];W[dq]
;B[qn];W[pk];B[np];W[no];B[mo];W[oo];B[qq];W[mp]
;B[qp];W[lp];B[fp];W[cn];B[jq];W[nc];B[lc];W[ld]
;B[kd];W[md];B[ob];W[kc];B[jc];W[kb];B[jd];W[jb]
;B[ib];W[lb];B[nb];W[hc];B[ic];W[mb];B[qe];W[he]
;B[kf];W[hb];B[cf];W[jo];B[hp];W[kh];B[if];W[gg]
;B[hh];W[dc];B[cc];W[ed];B[de];W[ec];B[cb];W[pg]
;B[ji];W[ie];B[kg];W[jh];B[hf];W[gf];B[ih];W[fi]
;B[ki];W[lh];B[li];W[ii];B[mi];W[mh];B[nh];W[mg]
;B[ng];W[mf];B[ij];W[hi];B[gi];W[hj];B[gj];W[hk]
;B[gh];W[ni];B[nj];W[oi];B[jl];W[hm];B[ol];W[oj]
;B[nk];W[rf];B[re];W[fm];B[fh];W[qf];B[ha];W[ga]
;B[ia];W[fb];B[gd];W[gc];B[nq];W[mn];B[nr];W[pl]
;B[lm];W[ho];B[ck];W[fk];B[ko];W[dj];B[gk];W[jp]
;B[kq];W[kp];B[hl];W[ci];B[cm];W[dn];B[ip];W[gl]
;B[ik];E[ii][hi][hj][hk];W[pb];B[oc];W[qc];B[rb];W[rc];B[sd];W[bi]
;B[rl];W[ra];B[sb];W[oa];B[na];W[sc];B[pa];E[oa];W[qb]
;B[oe];W[of];B[ne];W[nf];B[oa];W[pe];B[pf];E[pe];W[lq]
;B[lr];W[pe];E[pf];B[qd];W[rk];B[ql];W[qk];B[gn];W[gm]
;B[en];W[em];B[in];W[mr];B[lo];W[pq];B[pr];W[or]
;B[oq];W[qo];B[ro];W[pn];B[po];E[qo];W[ma];B[pm];W[jn]
;B[km];W[nd];B[im];W[me];B[sk];W[sj];B[sl];W[ok]
;B[om];W[rj];B[dp];W[cq];B[bg];W[hn];B[io];W[er]
;B[fr];W[fs];B[gs];W[es];B[gr];W[fe];B[fj];W[ek]
;B[ea];W[fa];B[bh];W[ai];B[fn];W[go];B[dm];W[dk]
;B[bn];W[bo];B[dh];W[ef];B[db];W[eb];B[da];W[di]
;B[ei];E[fi];W[ah];B[ag];W[ch];B[cg];W[dg];B[eh];W[df]
;B[fg];W[be];B[ce];W[bd];B[cd];W[ab];B[bb];W[ba]
;B[ff];W[ee];B[ge];W[bc];B[ae];W[fd];B[hg];E[gg][gf];W[ad]
;B[af];W[hd];B[gf];W[gp];B[gq];W[ja];B[do];W[co]
;B[fo];W[dl]
) 
