( 
;AP[Igc98:0.99f] GM[1] FF[4] 
;C[Igc98 Generated Sgf File] 
PW[Lee Changho] WR[7 dan] 
PB[Cho Hunhyun] BR[9 dan] 
SZ[19] KM[5.5] HA[0] 
RE[W+4.5] 
;B[pd];W[dp];B[pp];W[dd];B[fq];W[cn];B[dr];W[cq]
;B[iq];W[qn];B[ql];W[qq];B[qp];W[pq];B[op];W[rp]
;B[ro];W[rq];B[qo];W[nq];B[fc];W[df];B[db];W[nc]
;B[lc];W[qc];B[pc];W[qd];B[pe];W[pb];B[ob];W[qb]
;B[oc];W[qf];B[cc];W[di];B[be];W[kd];B[ld];W[kf]
;B[gf];W[le];B[kc];W[jd];B[me];W[mf];B[ne];W[bf]
;B[ce];W[cf];B[dm];W[cm];B[dk];W[fj];B[fl];W[hj]
;B[ei];W[ej];B[dj];W[dh];B[cl];W[dn];B[ci];W[ch]
;B[bi];W[em];B[bm];W[bn];B[bl];W[gg];B[hg];W[fg]
;B[qh];W[qg];B[ph];W[hf];B[lg];W[lf];B[lj];W[of]
;B[jc];W[oe];B[id];W[nb];B[na];W[qj];B[oi];W[rn]
;B[sn];W[ma];B[oa];W[mb];B[nd];W[od];B[lb];W[nf]
;B[md];W[rj];B[nr];W[oq];B[mq];W[np];B[pn];W[oj]
;B[nj];W[ok];B[nk];W[ol];B[nl];W[oo];B[on];W[nn]
;B[nm];W[om];B[rm];W[rh];B[mn];W[no];B[rk];W[qk]
;B[sj];W[si];B[sk];W[gq];B[gr];W[lo];B[lq];W[nh]
;B[ln];W[ni];B[or];W[lp];B[jn];W[pr];B[cr];W[fr]
;B[gp];W[ll];B[kk];W[eq];B[hq];E[gq];W[er];B[sp];W[kn]
;B[km];W[ko];B[jm];W[rr];B[bq];W[bp];B[dq];W[ep]
;B[cp];E[cq];W[bo];B[eo];W[do];B[sq];W[sr];B[qs];W[ps]
;B[rs];W[kq];B[kr];W[lr];B[mr];W[jr];B[ls];E[lr];W[jq]
;B[jo];W[is];B[ks];W[gs];B[hs];W[hr];E[hs];B[ir];W[js]
;B[hs];E[hr];W[so];E[sp][sq];B[sp];E[so];W[hr];E[hs];B[pk];W[gq];E[gr];B[pj];W[fp];E[fq]
;B[jp];W[kp];B[ri];W[qi];E[ri];B[pi];W[mj];B[mk];W[mi]
;B[lk];W[go];B[ip];W[if];B[gd];W[ie];B[he];W[jj]
;B[je];W[ke];B[jg];W[ig];B[ki];W[ji];B[kh];W[jh]
;B[kg];W[bh];B[bj];W[fe];B[jf];W[hh];E[hg];B[ge];W[fd]
;B[ec];W[ff];B[gc];W[cd];B[bd];W[dl];E[dm];B[ek];W[fk]
;B[el];W[gl];B[fm];W[il];B[hm];W[hl];B[jk];W[ik]
;B[ho];W[rg];B[ri];E[qj][rj][qk][qi];W[sh];B[dm];E[dl];W[po];B[qm];E[qn][rn];W[dl];E[dm]
;B[mg];W[ng];B[dm];E[dl];W[jl];B[kl];W[dl];E[dm];B[bs];W[ar]
;B[dm];E[dl];W[qe];B[la];W[dl];E[dm];B[aq];W[ds];B[dm];E[dl];W[os]
;B[ns];W[dl];E[dm];B[gn];W[fo];B[dm];E[dl];W[qn];B[pm];W[dl];E[dm]
;B[de];W[ed];B[dm];E[dl];W[ic];B[hd];W[dl];E[dm];B[im];W[sq]
;B[so];W[fn];B[dm];E[dl];W[sm];B[sl];E[sm];W[dl];E[dm];B[gm];W[dm]
;B[pa];W[qa];B[mc];E[nc][nb][ma][mb];W[ee];B[ae];W[bc];B[bb];W[ac]
;B[ab];W[af];B[ad];E[bc][ac];W[am];B[al];W[an];B[ah];W[ag]
;B[ai];W[li];B[hp];W[kj]
) 
