( 
;AP[Igc98:0.99f] GM[1] FF[4] 
;C[Igc98 Generated Sgf File] 
PW[Cho Hunhyun] WR[9 dan] 
PB[Kato Masao] BR[9 dan] 
SZ[19] KM[5.5] HA[0] 
RE[W+0.5] 
;B[qd];W[dd];B[cp];W[pp];B[eq];W[oc];B[pe];W[qi]
;B[lc];W[md];B[ld];W[me];B[le];W[mf];B[pc];W[lf]
;B[hc];W[mq];B[cf];W[fc];B[kf];W[kg];B[jg];W[jf]
;B[ke];W[kh];B[ig];W[bd];B[oh];W[mh];B[pj];W[qj]
;B[pk];W[qk];B[pl];W[qm];B[lp];W[lq];B[jp];W[kp]
;B[ko];W[kq];B[jm];W[iq];B[dj];W[ii];B[be];W[cc]
;B[hp];W[co];B[do];W[cn];B[bp];W[ck];B[cj];W[dk]
;B[ek];W[el];B[bk];W[bl];B[bj];W[fl];B[jj];W[ij]
;B[fk];W[gl];B[gk];W[hl];B[hk];W[ik];B[il];W[fo]
;B[jk];W[ji];B[gq];W[hn];B[en];W[io];B[ip];W[kn]
;B[jo];W[jn];B[lk];W[ln];B[im];W[in];B[li];W[km]
;B[jl];W[fn];B[lo];W[ep];B[dp];W[gp];B[gr];W[mo]
;B[ng];W[mj];B[lj];W[nh];B[lh];W[lg];B[mi];W[ni]
;B[nj];W[og];B[oi];W[mg];B[mm];W[pg];B[qq];W[qp]
;B[rp];W[ro];B[rr];W[ml];B[ll];W[nm];B[nl];W[pr]
;B[pq];W[or];B[oq];W[nq];B[qo];W[po];B[qn];W[rn]
;B[pn];W[oo];B[nn];W[no];B[om];E[nm];W[ql];B[dm];W[dl]
;B[cm];W[ir];B[hq];W[mn];B[ef];W[qf];B[od];W[mc]
;B[lb];W[fi];B[ei];W[ob];B[pb];W[re];B[rd];W[oe]
;B[gb];W[fb];B[cl];W[rb];B[of];W[ne];B[pf];W[nf];E[ng]
;B[rc];W[qb];B[pa];W[mb];B[sb];W[hd];B[id];W[ie]
;B[he];W[gd];B[jd];W[hf];B[if];W[ge];E[he];B[fa];W[ea]
;B[ga];W[db];B[jq];W[jr];B[fh];W[fg];B[eg];W[gh]
;B[eh];W[ib];B[ic];W[la];B[ka];W[ma];B[kb];W[de]
;B[ce];W[df];B[dg];W[ae];B[af];W[ad];B[cg];W[ra]
;B[sd];W[qe];B[se];W[pd];E[pe][of][pf];B[sg];W[pe];B[qc];W[rh]
;B[gi];W[on];B[pm];W[fq];B[fr];W[em];B[eo];W[fp]
;B[er];W[nm];E[nn];B[lm];W[gc];B[hb];W[kl];B[cd];W[bb]
;B[ed];W[ee];B[fe];W[dc];B[ff];W[gg];B[fd];W[gj]
;B[fj];E[fi];W[hj];B[ho];W[go];B[ec];W[eb];B[sh];W[si]
;B[sf];W[hr];B[hs];W[pi];B[oa];W[na];B[rg];W[qg]
;B[qa];W[ph];B[oj];W[nn];B[is];W[js];B[gs];W[kr]
;B[mp];W[np];B[hm];W[gm]
) 
