( 
;AP[Igc98:0.99f] GM[1] FF[4] 
;C[Igc98 Generated Sgf File] 
PW[Cho Hunhyun] WR[9p] 
PB[Nie Weiping] BR[9p] 
SZ[19] KM[5.5] HA[0] 
RE[W+7.5] 
;B[pd];W[dd];B[pq];W[dp];B[qo];W[jq];B[cn];W[fp]
;B[bp];W[cm];B[bm];W[bn];B[dm];W[cl];B[bl];W[co]
;B[dn];W[bo];B[ck];W[nc];B[kd];W[le];B[ek];W[ke]
;B[pf];W[jd];B[lq];W[qj];B[ql];W[rf];B[qg];W[qc]
;B[rg];W[qe];B[pe];W[pc];B[oj];W[ln];B[ko];W[kn]
;B[lo];W[mn];B[jn];W[jm];B[io];W[hq];B[im];W[jl]
;B[ll];W[mk];B[ml];W[nk];B[lk];W[mi];B[ol];W[oi]
;B[pj];W[nl];B[nm];W[kj];B[lj];W[li];B[mm];W[jj]
;B[fc];W[hc];B[df];W[cf];B[cc];W[dc];B[cd];W[cb]
;B[bb];W[db];B[de];W[ce];B[bd];W[cg];B[dg];W[be]
;B[ac];W[fd];B[ch];W[ae];B[ad];W[bh];B[dh];W[bi]
;B[ca];W[ee];B[ff];W[bj];B[gd];W[gc];B[fe];W[ed]
;B[ih];W[jg];B[hd];W[fb];B[hf];W[km];B[id];W[ic]
;B[je];W[jc];B[jf];W[kg];B[md];W[il];B[ig];W[hm]
;B[cq];W[dr];B[dq];W[eq];B[cr];W[er];B[br];W[ef]
;B[fg];W[da];B[ba];W[ab];B[aa];E[ab];W[pr];B[oq];W[qq]
;B[or];W[di];B[ei];W[dj];B[ej];W[do];B[cs];W[mo]
;B[oo];W[ap];B[aq];W[mr];B[kq];W[qp];B[ro];W[rr]
;B[jr];W[on];B[po];W[om];B[pi];W[nn];B[ni];W[mj]
;B[rp];W[ir];B[jp];W[iq];B[kr];W[nf];B[od];W[nd]
;B[oc];W[ob];B[ne];W[mc];B[me];W[mp];B[mq];W[ld]
;B[nb];W[pb];B[mf];W[lg];B[sf];W[se];B[qd];W[rd]
;B[sg];W[qm];B[rm];W[qn];B[rn];W[rc];B[mh];W[mg]
;B[ng];W[lh];B[nh];W[hi];B[dl];E[cm][cl];W[ao];B[aj];W[ag]
;B[cp];W[np];B[go];W[fo];B[is];W[hs];B[js];W[gp]
;B[ii];W[hj];B[gr];W[hr];B[hp];W[gq];B[fn];W[nq]
;B[nr];W[gn];B[ho];W[in];E[im];B[eo];W[jo];E[jn];B[ai];W[ak]
;B[jn];E[jo];W[ds];B[en];W[ep];B[gm];W[lp];B[kp];W[jo];E[jn]
;B[bk];W[ah];E[aj][ai];B[jn];E[jo];W[ar];B[as];E[ar];W[jo];E[jn];B[lc];W[mb]
;B[jn];E[jo];W[lf];B[of];E[nf];W[jo];E[jn];B[lb];W[na];E[nb];B[jn];E[jo];W[rq]
;B[ps];W[jo];E[jn];B[ma];W[la];E[ma];B[jn];E[jo];W[qs];B[os];W[jo];E[jn]
;B[hn];E[gn];W[ip];B[jn];E[jo];W[pk];B[im];E[in];W[qk];B[hl];E[hm];W[hk]
;B[aj];W[bf];B[gk];W[gh];B[pl];W[ok];B[rk];W[gg]
;B[fh];W[gf];B[ge];W[qi];B[qh];W[rj];B[gj];W[eg]
;B[eh];W[gi];B[ij];W[ik];B[jh];W[ki];B[op];W[nj]
;B[ph];W[sk];B[sl];W[rl];E[rk];B[fr];W[fs];B[rk];E[rl];W[sj]
;B[al];E[ak];W[rl];E[rk];B[gs];W[fq];E[gr][fr][gs];B[rk];E[rl];W[sq];B[rl];W[ss]
;B[qr];E[pr];W[fi];B[pr];W[fj];B[fk]
) 
