( 
;AP[Igc98:0.99f] GM[1] FF[4] 
;C[Igc98 Generated Sgf File] 
PW[Cho Hunhyun] WR[Meijin] 
PB[Lee Changho] BR[5 dan] 
SZ[19] KM[5.5] HA[0] 
RE[B+1.5] 
;B[pd];W[dd];B[pq];W[dp];B[qo];W[kq];B[cn];W[dn]
;B[dm];W[co];B[en];W[do];B[cf];W[di];B[em];W[fp]
;B[fc];W[fd];B[gd];W[fe];B[cc];W[ec];B[cd];W[gc]
;B[mq];W[gn];B[bn];W[cl];B[cm];W[bl];B[dk];W[ch]
;B[dg];W[dl];B[gm];W[fk];B[hn];W[go];B[el];W[ek]
;B[gk];W[hm];B[fl];W[fi];B[hl];W[im];B[gi];W[gh]
;B[hi];W[fh];B[jp];W[mp];B[in];W[il];B[ik];W[jn]
;B[hp];W[kl];B[jo];W[ho];B[io];W[nq];B[kn];W[jk]
;B[ji];W[mr];B[cq];W[hq];B[bo];W[ir];B[mm];W[ki]
;B[kh];W[ij];B[hk];W[li];B[jj];W[ll];B[nn];W[kj]
;B[nk];W[jh];B[ii];W[ni];B[nc];W[pi];B[pk];W[oo]
;B[km];W[jl];B[pn];W[qp];B[qq];W[qd];B[qe];W[pc]
;B[qc];W[rd];B[re];W[qb];B[rc];W[od];B[sd];E[qd][rd];W[oc]
;B[nd];W[oe];B[ne];W[of];B[jc];W[db];B[cb];W[rg]
;B[rb];W[qm];B[pm];W[qk];B[qj];W[pj];B[ql];W[rk]
;B[rl];W[ok];B[pl];W[rj];B[er];W[dr];B[gq];W[gp]
;B[dq];W[eq];B[hr];W[ip];E[hp];B[fr];W[cr];B[bq];W[hs]
;B[gr];W[jq];B[nf];W[bg];B[bf];W[hc];B[qg];W[og]
;B[ic];W[lc];B[ld];W[lb];B[mb];W[oa];B[na];W[ob]
;B[mc];W[nb];B[ma];W[kd];B[le];W[rh];B[oj];W[br]
;B[ar];W[bp];B[aq];W[cp];B[ap];W[gs];B[bs];W[or]
;B[oi];W[oh];B[nj];W[kg];B[hd];W[ib];B[jb];W[id]
;B[jd];W[ie];B[hb];W[gb];B[ia];E[ib];W[he];B[ga];W[fb];E[fc]
;B[je];W[rs];B[rr];W[ra];B[rf];W[qh];B[qs];W[ps]
;B[qr];W[pp];B[rp];W[ko];B[jm];E[jn];W[kp];B[jn];W[af]
;B[ae];W[ag];B[ab];W[de];B[ce];W[jf];B[lf];W[ig]
;B[ck];W[bk];B[cg];W[bi];B[eg];W[pe];B[qd];W[kf]
;B[ke];W[ml];B[nl];W[ln];B[lm];W[mn];B[nm];W[no]
;B[lk];W[kk];B[po];W[op];B[lh];W[mh];B[lg];W[sf]
;B[sb];W[fg];B[ef];W[fa];B[ih];W[ha];E[ga];B[ib];W[hh]
;B[jg];E[jh];W[if];B[da];W[ea];B[ca];W[fq];B[ds];W[eo]
;B[fn];W[fo];B[sl];W[sk];B[dc];W[ee];B[pr];W[os]
;B[oq];W[pg];B[qf];W[mg];B[ff];W[gf];B[ng];W[nh]
;B[bm];W[al];B[am];W[dj];B[fj];W[ej];B[gj];W[mf]
;B[me];W[on];B[om];W[is];B[cs];E[dr][cr][br];W[fs];B[es];W[eb]
;B[eh];W[ga];B[mj];W[mi];B[jh]
) 
