( 
;AP[Igc98:0.99f] GM[1] FF[4] 
;C[Igc98 Generated Sgf File] 
PW[Cho Hunhyun] WR[9 dan] 
PB[Nie Weiping] BR[9 dan] 
SZ[19] KM[5.5] HA[0] 
RE[B+1.5] 
;B[pd];W[dd];B[dq];W[qp];B[cf];W[fc];B[bd];W[cc]
;B[ci];W[co];B[cp];W[do];B[ep];W[cj];B[bi];W[ej]
;B[dj];W[dk];B[di];W[gq];B[eo];W[en];B[gp];W[hp]
;B[go];W[fq];B[bp];W[gm];B[in];W[jq];B[ho];W[ck]
;B[ip];W[iq];B[lq];W[oq];B[lo];W[er];B[qf];W[qk]
;B[hc];W[pb];B[pc];W[ob];B[qb];W[rb];B[qa];W[lc]
;B[jc];W[qh];B[qg];W[od];B[oc];W[nc];B[rc];W[ph]
;B[bc];W[ce];B[be];W[df];B[cg];W[ge];B[je];W[lf]
;B[he];W[gf];B[ql];W[pl];B[qm];W[pk];B[qo];W[ro]
;B[rp];W[po];B[qn];W[rq];B[pp];W[qq];B[on];W[ml]
;B[fn];W[em];B[nf];W[kg];B[ig];W[kb];B[ld];W[md]
;B[le];W[mb];B[nh];W[og];B[mf];W[ng];B[mg];W[mh]
;B[lh];W[mi];B[li];W[mj];B[fk];W[ek];B[bn];W[fj]
;B[hj];W[gh];B[gk];W[gj];B[ik];W[ih];B[jh];W[hg]
;B[if];W[hl];B[hk];W[fm];B[kr];W[jr];B[cm];W[ii]
;B[il];W[ji];B[hi];W[hh];B[kh];W[oo];B[no];W[op]
;B[nm];W[mp];B[lp];W[mn];B[mm];W[mo];B[ln];W[om]
;B[nn];W[pn];B[dr];W[hr];B[nl];W[rh];B[dm];W[dl]
;B[ef];W[ee];B[dg];W[ff];B[de];E[df];W[ec];B[cb];W[db]
;B[cd];E[ce];W[dc];B[ba];W[bl];B[oj];W[oi];B[nr];W[mq]
;B[mr];W[ll];B[np];W[nq];B[lm];W[or];B[es];W[fs]
;B[ds];W[jp];B[jo];W[sf];B[re];W[bo];B[ao];W[bm]
;B[cn];W[dn];B[gs];W[fr];B[is];W[js];B[hs];W[io];E[ip]
;B[rn];W[rl];B[ip];E[io];W[hq];B[nj];W[ni];B[pj];W[qj]
;B[os];W[ps];B[ns];W[pr];B[ol];W[pm];B[kl];W[bj]
;B[jb];W[kc];B[kd];W[gb];B[hb];W[gd];B[eh];W[fh]
;B[oe];W[nd];B[hd];W[io];E[ip];B[hm];W[gn];B[hn];W[fo];E[fn]
;B[fp];W[ko];B[jn];W[kp];B[kk];W[lj];B[oa];W[of]
;B[pe];W[nb];B[pa];W[da];B[ks];W[pi];B[se];W[rg]
;B[rf];W[sg];B[aj];W[ak];B[ai];W[am];B[an];W[fg]
;B[eg];W[ca];B[bb];W[kn];B[km];W[gl];B[na];W[ma]
;B[ga];W[fa];B[ha];W[ja];B[ia];W[ka];B[gc];W[fb]
;B[jj];W[pg];B[fn];E[fo];W[ip];B[fo]
) 
