( 
;AP[Igc98:0.99f] GM[1] FF[4] 
;C[Igc98 Generated Sgf File] 
PW[Kato Masao] WR[9 dan] 
PB[Cho Hunhyun] BR[9 dan] 
SZ[19] KM[5.5] HA[0] 
RE[] 
;B[pd];W[dp];B[pp];W[dd];B[fq];W[hq];B[fo];W[cn]
;B[ip];W[eq];B[iq];W[fr];B[gq];W[qn];B[ql];W[gr]
;B[hr];W[qq];B[pq];W[qp];B[po];W[qr];B[pn];W[rn]
;B[pr];W[nc];B[pf];W[pb];B[md];W[qc];B[mc];W[re]
;B[fc];W[df];B[qm];W[ge];B[jk];W[lk];B[ki];W[ok]
;B[rm];W[sr];B[nk];W[li];B[nj];W[ni];B[mi];W[kj]
;B[lh];W[jj];B[lj];E[li];W[kk];B[rf];W[qe];B[qf];W[ji]
;B[jh];W[ih];B[jg];W[ig];B[if];W[hf];B[ie];W[gc]
;B[dm];W[cm];B[ii];W[hk];B[hi];W[hg];B[fi];W[nl]
;B[ij];W[ml];B[ik];W[mj];B[nh];W[li];E[lj];B[oi];E[ni];W[kh];E[ki]
;B[kg];W[km];B[ln];W[lm];B[mn];W[im];B[jl];W[lg]
;B[ki];E[kh];W[jm];B[hl];W[kh];E[ki];B[mh];W[gn];B[hm];W[hn]
;B[in];W[id];B[ki];E[kh];W[io];B[jn];W[kh];E[ki];B[kf];W[il]
;B[gk];W[gl];B[hj];E[hk];W[gm];B[hk];W[kn];B[jo];W[ko]
;B[jp];W[el];B[dj];W[kp];B[kr];W[lr];B[mp];W[lq]
;B[jr];W[om];B[pm];W[dl];B[dg];W[eh];B[dh];W[ei]
;B[ej];W[fh];B[ck];W[fj];B[fk];W[gi];E[fi];B[ek];W[cf]
;B[bg];W[bf];B[cg];W[bh];B[ag];W[di];B[ci];W[bi]
;B[eg];W[oj];B[dc];W[cc];B[ed];W[ee];B[cd];W[ch]
;B[cj];W[fg];B[bk];W[bd];B[kl];W[qj];B[rj];W[nr]
;B[mq];W[mr];B[or];W[bl];B[cl];W[en];B[ak];W[bm]
;B[ai];W[pi];B[ri];W[lf];B[ki];E[kh];W[qk];B[pl];W[kh];E[ki]
;B[ke];W[og];B[mf];W[ne];B[mg];W[ol];B[rk];W[qh]
;B[of];W[rh];B[ni];W[mk];B[pc];W[sh];B[qd];W[sl]
;B[mm];W[ll];B[sm];W[on];B[no];W[lp];B[rs];W[qs]
;B[rp];W[ro];B[rq];W[qo];B[rr]
) 
