( 
;AP[Igc98:0.99f] GM[1] FF[4] 
;C[Igc98 Generated Sgf File] 
PW[Cho Chikun] WR[9 dan] 
PB[Cho Hunhyun] BR[9 dan] 
SZ[19] KM[0.5] HA[0] 
RE[B+1.5] 
;B[pd];W[dd];B[pp];W[dp];B[fq];W[hq];B[fo];W[dn]
;B[ip];W[iq];B[jp];W[hp];B[ho];W[jq];B[kp];W[lq]
;B[mo];W[qj];B[co];W[do];B[go];W[nq];B[cl];W[cn]
;B[el];W[dr];B[cf];W[fc];B[ql];W[qg];B[ph];W[pg]
;B[pj];W[nd];B[ne];W[md];B[me];W[ld];B[oh];W[qd]
;B[qe];W[re];B[pe];W[rd];B[qc];W[pc];B[oc];W[pb]
;B[rc];W[rb];B[le];W[og];B[kd];W[nh];B[lc];W[pk]
;B[oj];W[qk];B[rf];W[qb];B[ri];W[qn];B[qi];W[oo]
;B[ok];W[pl];B[ol];W[rp];B[ih];W[ef];B[gh];W[id]
;B[ge];W[hc];B[ee];W[de];B[df];W[fe];B[ff];W[ed];E[ee]
;B[eg];W[od];B[oe];W[nc];B[je];W[nn];B[mm];W[nm]
;B[nl];W[mn];B[ln];W[lo];B[kn];W[rg];B[se];W[sc];E[qc][rc]
;B[qf];W[rj];B[pm];W[qm];B[si];W[be];B[lp];W[mq]
;B[bf];W[bl];B[bk];W[bm];B[ck];W[fn];B[gm];W[gf]
;B[ee];E[ef];W[ml];B[lm];W[ef];E[ee];B[fg];W[if];B[jf];W[kc]
;B[jc];W[kb];B[jd];W[jb];B[no];W[pn];B[om];W[rl];E[ql]
;B[on];E[nn][nm][mn];W[op];B[er];W[he];B[bd];W[bc];B[ce];W[cd]
;B[ae];E[be];W[ig];B[jg];W[gr];B[ac];W[bb];B[ds];W[cr]
;B[cs];W[bs];B[es];W[br];B[kq];W[kr];B[ab];W[fm]
;B[fl];W[ak];B[aj];W[al];B[bj];W[sf];B[sg];E[sf];W[ba]
;B[ic];W[ib];B[cm];W[bn];B[ie];W[hd];B[ee];E[ef];W[gd];E[ge]
;B[hg];W[hf];B[sj];W[sk];B[dm];W[gg];B[hh];W[en]
;B[eq];W[gn];B[hn];W[dq];B[gs];W[hs];B[fs];W[np]
;B[ef]
) 
