( 
;AP[Igc98:0.99f] GM[1] FF[4] 
;C[Igc98 Generated Sgf File] 
PW[Cho Hunhyun] WR[Paewang] 
PB[Lee Changho] BR[] 
SZ[19] KM[5.5] HA[0] 
RE[B+2.5] 
;B[pd];W[dd];B[fc];W[df];B[pp];W[dq];B[jd];W[qj]
;B[qh];W[qn];B[np];W[rp];B[ql];W[on];B[ol];W[rl]
;B[qk];W[rk];B[pj];W[rj];B[pi];W[nc];B[oc];W[nd]
;B[ld];W[lc];B[kc];W[pe];B[qe];W[pf];B[od];W[oe]
;B[ne];W[md];B[nf];W[le];B[kd];W[me];B[ob];W[mg]
;B[og];W[jg];B[ck];W[ci];B[co];W[cm];B[ep];W[eq]
;B[fp];W[gq];B[dl];W[cp];B[dp];W[cq];B[bo];W[gp]
;B[en];W[lq];B[nn];W[ko];B[db];W[hd];B[jf];W[kf]
;B[if];W[ge];B[ig];W[jh];B[ih];W[ji];B[cc];W[cd]
;B[ii];W[jj];B[hk];W[ei];B[jl];W[qf];B[rg];W[qd]
;B[qc];W[re];E[qe];B[rc];W[ng];B[of];W[oh];B[pg];W[ni]
;B[oi];W[nh];B[ph];W[bc];B[bb];W[dc];B[cb];W[mn]
;B[nm];W[mo];B[no];W[bd];B[hb];W[bj];B[bk];W[hn]
;B[mj];W[mi];B[fq];W[fr];B[gr];W[hr];B[lj];W[lb]
;B[nb];W[lh];B[mr];W[mq];B[nq];W[qq];B[qo];W[ro]
;B[qm];W[rm];B[pn];W[gc];B[fb];W[ic];B[kb];W[gb]
;B[fd];W[jb];B[mb];W[ka];B[mc];W[la];B[ab];W[fe]
;B[fi];W[fj];B[gi];W[ej];B[fg];W[gg];B[gh];W[eh]
;B[ke];W[mf];B[kg];W[lf];B[er];W[gs];E[gr];B[rn];E[qn];W[sn]
;B[br];W[bq];B[aq];W[dr];B[bp];W[lr];B[pr];W[qr]
;B[jn];W[jo];B[ga];W[em];B[dm];W[fn];B[gl];W[hc]
;B[qs];W[rs];B[ps];W[rr];B[cr];W[es];E[er];B[fm];W[eo]
;B[dn];W[fo];B[do];W[ak];B[al];W[aj];B[bm];W[or]
;B[pq];W[nr];B[in];W[io];B[hm];W[gn];B[eg];W[dg]
;B[cj];W[bi];B[cs];W[ri];B[rh];W[gm];B[fl];W[im]
;B[jm];W[hl];E[hm];B[il];W[hm];B[ll];W[nj];B[nk];W[kk]
;B[mm];W[qn];E[rn];B[lk];W[oj];B[ok];W[qp];B[rn];E[qn];W[ja]
;B[fa];W[qn];E[rn];B[po];W[ij];B[hj];W[ek];B[el];E[em];W[gf]
;B[fh];W[ed];B[mp];W[lp];B[os];W[ms];E[mr];B[ds];W[er]
;B[ac];W[ad];B[kj];W[jk];B[dj];W[di];B[si];W[sj]
;B[sh];W[ec];B[eb];W[ma];B[na];W[hg];B[oq];W[ns]
;B[ef];W[ee];B[ln];W[lo];B[kn];W[kl];B[ik];W[rn]
;B[ki];W[kh]
) 
