( 
;AP[Igc98:0.99f] GM[1] FF[4] 
;C[Igc98 Generated Sgf File] 
PW[Shao Weigang] WR[9 dan] 
PB[Cho Hunhyun] BR[9 dan] 
SZ[19] KM[5.5] HA[0] 
RE[B+R] 
;B[pd];W[dd];B[qp];W[dq];B[do];W[op];B[fp];W[co]
;B[cn];W[cp];B[dn];W[qq];B[cf];W[fc];B[di];W[pp]
;B[qo];W[rq];B[pk];W[lp];B[hc];W[nc];B[nd];W[md]
;B[oc];W[ne];B[od];W[nb];B[me];W[ld];B[le];W[kd]
;B[ie];W[ke];B[nf];W[jc];B[er];W[dr];B[jq];W[ff]
;B[ig];W[kg];B[gg];W[qi];B[qg];W[rg];B[rf];W[oi]
;B[nk];W[rk];B[ql];W[rl];B[qm];W[rh];B[ob];W[mj]
;B[ll];W[kk];B[ik];W[kl];B[ln];W[jp];B[kq];W[lo]
;B[km];W[ml];B[mk];W[lk];B[lm];W[lq];B[bn];W[ep]
;B[fq];W[eo];B[fm];W[bo];B[bq];W[br];B[fb];W[ec]
;B[gc];W[df];B[cg];W[be];B[nj];W[ki];B[mi];W[qf]
;B[re];W[mh];B[ph];W[og];B[lj];E[mj];W[pg];B[kj];W[eh]
;B[lh];W[lf];B[oe];E[ne];W[ji];B[mg];W[jg];B[jf];W[kf]
;B[ei];W[hh];B[gf];W[gh];B[ih];W[ii];B[fh];W[ge]
;B[he];W[gd];B[ic];W[hg];B[hf];W[fg];B[fi];W[hi]
;B[jb];W[kb];B[ja];W[ha];B[ga];W[hb];B[eb];W[db]
;B[ea]
) 
