( 
;AP[Igc98:0.99f] GM[1] FF[4] 
;C[Igc98 Generated Sgf File] 
PW[Cho Hunhyun] WR[Chaegowi] 
PB[Lee Changho] BR[] 
SZ[19] KM[5.5] HA[0] 
RE[B+R] 
;B[pd];W[dp];B[qp];W[dc];B[oq];W[qj];B[ql];W[qf]
;B[nd];W[jq];B[qe];W[pf];B[qh];W[rh];B[rg];W[rf]
;B[ri];W[ph];B[qi];W[pi];B[rj];W[mg];B[kc];W[cn]
;B[ch];W[ce];B[ck];W[mq];B[dr];W[dq];B[er];W[cr]
;B[hq];W[gr];B[hr];W[fq];B[lq];W[pq];B[pr];W[nr]
;B[lr];W[or];B[qq];W[pp];B[po];W[op];B[oo];W[np]
;B[lp];W[qr];B[no];W[ok];B[og];W[ne];B[pg];W[qg]
;B[oi];W[pj];B[oh];W[md];B[nc];W[qo];B[ro];W[qn]
;B[rn];W[qm];B[pm];W[rk];B[qk];W[rl];B[rm];W[sg];E[rg]
;B[sl];W[ni];B[nj];W[oj];B[mh];W[mi];B[mf];W[nf]
;B[nh];W[lh];B[li];W[mj];B[lg];W[kh];B[ng];E[mg];W[kg]
;B[kf];W[kd];B[jf];W[of];B[mg];W[me];B[lf];W[lc]
;B[rd];W[lk];B[ki];W[ig];B[if];W[ih];B[jj];W[hf]
;B[he];W[gf];B[id];W[jk];B[ik];W[jl];B[il];W[im]
;B[hj];W[jn];B[kb];W[lb];B[ib];W[qc];B[rc];W[fc]
;B[hg];W[ii];B[gg];W[kj];B[hi];W[ji];B[ob];W[re]
;B[se];W[hc];B[jd];W[ic];B[jc];W[hb];B[fe];W[ff]
;B[ef];W[fg];B[ge];W[qd];B[qb];W[ee];B[ed];W[de]
;B[ec];W[eb];B[fb];W[db];B[gc];W[gb];B[fd];E[fc];W[fa]
;B[hd];W[ia];B[ka];W[pc];B[pb];W[pe];E[qe];B[od]
) 
