( 
;AP[Igc98:0.99f] GM[1] FF[4] 
;C[Igc98 Generated Sgf File] 
PW[Cho Hunhyun] WR[] 
PB[Zhang Wendong] BR[] 
SZ[19] KM[8.0] HA[0] 
RE[W+3] 
;B[pd];W[dp];B[pp];W[dd];B[fq];W[ip];B[fo];W[dn]
;B[dr];W[cq];B[ir];W[di];B[fc];W[df];B[db];W[gc]
;B[gb];W[fb];B[eb];W[fd];B[fa];E[fb];W[hc];B[cc];W[qn]
;B[np];W[rp];B[qq];W[qk];B[fm];W[dl];B[jm];W[kq]
;B[pl];W[ql];B[pn];W[gp];B[fp];W[hr];B[hq];W[iq]
;B[gr];W[jr];B[hs];E[hr];W[mq];B[qo];W[rn];B[nq];W[lr]
;B[qi];W[pk];B[ol];W[ro];B[be];W[qf];B[oi];W[qc]
;B[qd];W[pc];B[od];W[rd];B[re];W[rc];B[qe];W[nc]
;B[rj];W[rq];B[cg];W[nd];B[ne];W[me];B[nf];W[mf]
;B[ng];W[ch];B[dg];W[bg];B[bf];W[bh];B[jc];W[cf]
;B[lc];W[je];B[md];W[nb];B[le];W[jg];B[lf];W[ii]
;B[rr];W[rk];B[cr];W[br];B[gi];W[gh];B[if];W[ie]
;B[fh];W[hh];B[fe];W[ed];B[he];W[gf];B[hf];W[ge]
;B[hd];W[gd];B[fj];W[fg];B[dq];W[cp];B[jp];W[lp]
;B[jo];W[nr];B[or];W[jq];B[ns];W[mr];B[jf];W[eh]
;B[bs];W[ar];B[lo];W[pi];B[ph];W[pj];B[rh];W[nk]
;B[nl];W[ni];B[mk];W[mj];B[lk];W[qp];B[qr];W[po];E[qo]
;B[oo];W[pm];B[on];W[ic];B[id];W[io];B[ek];W[dk]
;B[oh];W[ki];B[jj];W[ij];B[li];W[gk];B[el];W[em]
;B[gl];W[hk];B[sq];W[sm];B[ej];W[lh];B[kj];W[lj]
;B[ji];W[mi];E[li];B[jh];W[ok];B[om];W[kh];B[ih];W[hl]
;B[qm];E[pm];W[rm];B[mh];W[sj];B[si];W[sk];B[kg];W[kl]
;B[lg];W[li];B[kk];W[jl];B[hm];W[gn];B[en];W[dm]
;B[gm];W[hi];B[im];W[jk];B[kb];W[qj];B[mb];W[oc]
;B[ri];W[se];B[sf];W[sd];B[rf];W[cd];B[bd];W[fn]
;B[go];W[hn];B[ln];W[hp];B[gq];W[eo];E[en];B[na];W[oa]
;B[ma];W[hb];B[pa];W[ob];B[lm];W[mp];B[mo];W[sp]
;B[sr];W[hg];B[af];W[ms];B[mc];W[rb];B[os];W[js]
;B[is];W[bc];B[bb];W[ig];B[ja];W[ia];B[jb];W[fi];E[fh]
;B[ce];W[de];B[ag];W[ah];B[dj];W[cj];B[gj];W[ll]
;B[ml];W[ep];B[eq];W[dc];B[ac];E[bc];W[il];B[in];W[ho]
;B[nh];W[nj];B[ei];W[km];B[jn];W[ec];B[fb];W[fh]
;B[kn];W[hj];B[fl];W[kp];B[bq];W[bp];B[ib];W[ha]
;B[cs];W[aq];E[bq];B[as];W[ga];B[ko];W[fk];B[pm];W[oj]
;B[qo];E[po];W[oq];B[op];W[po];E[qo];B[ci];W[dh];B[qo];E[po];W[cb]
;B[ca];E[cb];W[po];E[qo];B[ra];W[sb];B[qo];E[po];W[pr];B[pq];E[oq];W[po];E[qo]
;B[ck];W[bj];B[qo];E[po];W[jd];B[kf];W[po];E[qo];B[rl];W[sl];E[rl]
;B[qo];E[po];W[ps];B[qs];E[pr][ps];W[po];E[qo];W[];W[qo]
) 
