( 
;AP[Igc98:0.99f] GM[1] FF[4] 
;C[Igc98 Generated Sgf File] 
PW[Lee Changho] WR[7p] 
PB[Cho Hunhyun] BR[9p] 
SZ[19] KM[5.5] HA[0] 
RE[B+3.5] 
;B[qd];W[dp];B[pq];W[fc];B[nc];W[po];B[dd];W[cf]
;B[fd];W[gd];B[fe];W[dc];B[ec];W[eb];B[ed];W[gb]
;B[cc];W[db];B[ge];W[hd];B[cj];W[bd];B[cd];W[bc]
;B[cb];W[ch];B[cm];W[fq];B[bg];W[bf];B[bh];W[cg]
;B[ci];W[eh];B[he];W[id];B[gh];W[di];B[ek];W[gi]
;B[hi];W[fi];B[hj];W[fk];B[qm];W[qq];B[qp];W[pp]
;B[qo];W[qn];B[pn];W[rn];B[rq];W[qr];B[ro];W[oq]
;B[rm];W[on];B[pm];W[qf];B[qh];W[qc];B[pd];W[rd]
;B[re];W[rc];B[qe];W[ob];B[jf];W[of];B[ne];W[ph]
;B[pi];W[oh];B[qg];W[oi];B[pj];W[lg];B[mi];W[rf]
;B[sf];W[sg];B[se];W[oj];B[nk];W[rg];B[pf];W[pg]
;B[pe];W[qi];B[rh];W[pk];B[oo];W[op];B[no];W[mh]
;B[mq];W[nr];B[li];W[qj];E[pi][pj];B[nb];W[pb];B[mr];W[rr]
;B[sr];W[iq];B[jp];W[ns];B[ip];W[ej];B[hq];W[bn]
;B[bm];W[cn];B[dn];W[co];B[gr];W[el];B[em];W[gl]
;B[fr];W[dr];B[il];W[dl];B[bk];W[im];B[jm];W[hm]
;B[jn];W[ol];B[nl];W[ms];B[kr];W[om];B[mn];W[jg]
;B[kc];W[jc];B[kd];W[kb];B[lb];W[ks];B[dm];W[jr]
;B[lr];W[ls];B[eq];W[jb];B[ir];W[kf];B[je];W[ki]
;B[kj];W[kh];B[ep];W[jj];B[kk];W[dq];B[bp];W[bq]
;B[do];W[cp];B[gn];W[jq];B[kq];W[js];B[ih];W[nj]
;B[mj];W[nm];B[mm];W[nf];B[ji];W[me];B[sd];W[rb]
;B[is];W[er];B[hp];W[np];B[mp];W[rk];B[bb];W[ce]
;B[fg];W[ig];B[hg];W[ag];B[bi];W[jh];B[ii];W[if]
;B[ie];W[lh];B[le];W[md];B[lf];W[mf];B[ab];W[nd]
;B[lc];W[cl];B[dk];W[ac];B[gj];W[fj];B[fm];W[fl]
;B[ah];W[ef];B[af];E[ag];W[ae];B[eg];W[dg];B[ri];W[mc]
;B[mb];W[fs];B[gs];W[es];B[da];W[ea];B[ca];W[hn]
;B[ho];W[bl];B[al];W[an];B[am];W[nn];B[mo];W[ni]
;B[mk];W[gf];B[hf];W[ff];B[gg];W[hl];B[hk];W[in]
;B[ka];W[ja];B[la];W[io];B[jo];W[sc];B[jd];W[hb]
;B[oa];W[pa];B[na];W[pc];B[sh];E[qf][rf][sg][rg];W[oe];E[ne];B[rj];W[sj]
;B[rs];W[pr];E[pq];B[sn];E[qn][rn];W[qk];B[ag];W[qs];B[sq]
) 
