(;GN[13rd China Tianyuan 3rd round]EV[13rd Tianyuan]
RO[3rd]DT[1999-02-24]PB[Ma Xiaochun]BR[9p]PW[Yu Ping]
WR[6p]RE[W+R]

]SZ[19];B[pd];W[dc];B[dp];W[qp];B[oq]
;W[lp];B[on];W[qm];B[jp];W[mn];B[pp];W[qo];B[ol];W[pk];
B[ok];W[pj];B[kn];W[np]
;B[op];W[lm];B[oj];W[pi];B[kk];W[jl];B[in];W[kl];B[lk];
W[jk];B[ji];W[fq];B[fo]
;W[hq];B[jr];W[dr];B[hj];W[hl];B[cq];W[fl];B[gp];W[cr];
B[br];W[gq];B[dl];W[ir]
;B[iq];W[hp];B[gm];W[jo];B[gl];W[ip];B[jq];W[lr];B[jn];
W[io];B[hm];W[pn];B[mo]
;W[no];B[lo];W[nn];B[mp];W[nq];B[mq];W[nr];B[hr];W[dq];
B[cp];W[lq];B[ko];W[gr]
;B[is];W[fp];B[mr];W[ms];B[er];W[go];B[eq];W[kp];B[ep];
W[fn];B[eo];W[gn];B[hn]
;W[fm];B[fk];W[dm];B[ek];W[en];B[gs];W[cl];B[ck];W[el];
B[dk];W[ho];B[ce];W[ed]
;B[gc];W[df];B[cf];W[dg];B[bc];W[ge];B[id];W[if];B[kd];
W[hh];B[ll];W[km];B[jj]
;W[qc];B[pc];W[qd];B[qe];W[re];B[qq];W[pr];B[or];W[os];
B[pe];W[rf];B[oo];W[om]
;B[nm];W[pm];B[mm];W[ln];B[qr];W[ps];B[qb];W[rb];B[rc];
W[rd];B[ra];W[sc];B[ob]
;W[fs];B[hs];W[il];B[eh];W[fg];B[pq];W[rq];B[pg];W[kf];
B[qh];W[le];B[ld];W[li]
;B[nh];W[kj];B[mj];W[lj];B[ml];W[mh];B[rr];W[rp];B[ng];
W[ij];B[jg];W[kh];B[ii]
;W[hi];B[hk];W[ik];B[bh];W[je];B[sb];W[sa];B[ks];W[ls];
B[sb];W[rh];B[qi];W[sa]
;B[kr];W[jh];B[sb];W[qg];B[qf];W[sa];B[de];W[ee];B[sb];
W[rg];B[ph];W[sa];B[dn]
;W[cn];B[sb];W[ri];B[co];W[bm];B[bn];W[do];B[kq];W[ns];
B[dn];W[cm];B[bk];W[do]
;B[qj];W[bo])
