(
;
US[Converted by sgf2misc-2.5]
PB[Yoo Chang Hyeok] BR[5 dan]
PW[Lee Changho] WR[Wangwi]
EV[26th Wangwi]
RO[4]
SO[Taiwanese Weichi Monthly August '92]
KM[5.5]
RE[B+4.5]

;B[pd];W[dd];B[pq];W[cp];B[eq];W[qo];B[pl];W[pn];B[np];W[rq]
;B[kq];W[qf];B[qh];W[nc];B[pf];W[jd];B[cf];W[qc];B[pc];W[qd]
;B[pe];W[rf];B[qg];W[ep];B[dp];W[do];B[dq];W[cq];B[co];W[cn]
;B[eo];W[dn];B[fp];W[df];B[de];W[ee];B[ce];W[ed];B[cd];W[cc]
;B[dg];W[bc];B[ef];W[ge];B[lc];W[ld];B[kc];W[jc];B[kd];W[ke]
;B[je];W[le];B[ie];W[mc];B[jb];W[ic];B[ob];W[qb];B[kb];W[la]
;B[mb];W[nb];B[na];W[ma];B[hc];W[oa];B[hb];W[fb];B[qm];W[qr]
;B[pr];W[rn];B[ne];W[oj];B[ok];W[mj];B[oi];W[cr];B[cj];W[jf]
;B[if];W[ig];B[jg];W[kf];B[jh];W[hf];B[ib];W[lh];B[pj];W[me]
;B[jn];W[ho];B[em];W[im];B[en];W[jm];B[in];W[hn];B[hm];W[kn]
;B[jo];W[ih];B[km];W[fr];B[ln];W[kl];B[ko];W[er];B[gq];W[gr]
;B[hr];W[hq];B[ir];W[iq];B[jr];W[gm];B[hl];W[ik];B[hk];W[hj]
;B[gj];W[hi];B[fk];W[cl];B[lk];W[fl];B[el];W[il];B[gk];W[ll]
;B[mk];W[lj];B[kk];W[jj];B[fc];W[eb];B[gb];W[nj];B[rm];W[nk]
;B[ml];W[nl];B[nm];W[bj];B[bi];W[fq];B[gp];W[dr];B[ep];W[bk]
;B[dk];W[oh];B[og];W[nh];B[pi];W[sh];B[qe];W[re];B[sg];W[rg]
;B[rh];W[sf];B[ri];W[eh];B[ff];W[gi];B[bd];W[ej];B[ek];W[bh]
;B[ci];W[ai];B[bg];W[ol];B[jk];W[pk];B[qk];W[jl];B[lm];W[ij]
;B[qq];W[rr];B[oo];W[qj];B[ok];W[ps];B[os];W[pk];B[nf];W[ni]
;B[ok];W[ph];B[pg];W[pk];B[qi];W[qs];B[or];W[pm];B[ql];W[po]
;B[on];W[sm];B[sl];W[sn];B[ec];W[dc];B[fa];W[fd];B[gc];W[da]
;B[ac];W[ab];B[ad];W[sk];B[rk];W[he];B[id];W[cb];B[mf];W[ch]
;B[dh];W[ei];B[ck];W[bl];B[cg];W[ah];B[eg];W[lb];B[fh];W[fi]
;B[pb];W[pa];B[lg];W[kg];B[nd];W[mg];B[lf];W[kj];B[mm];W[rl]
;B[md];W[kh];B[sl];W[ga];B[ha];W[rl];B[dm];W[cm];B[sl];W[ka]
;B[ja];W[rl];B[aj];W[ak];B[sl];W[pp];B[op];W[rl];B[qp];W[rp]
;B[sl];W[ag];B[af];W[aj];B[sj];W[gg];B[fg];W[gh];B[ng];W[mh]
;B[oc];W[hs];B[is];W[gs];B[ok];W[rd];B[pk])
