( 
;AP[Igc98:0.99f] GM[1] FF[4] 
;C[Igc98 Generated Sgf File] 
PW[Kobayashi Satoru] WR[9 dan] 
PB[Cho Hunhyun] BR[9 dan] 
SZ[19] KM[5.5] HA[0] 
RE[B+6.5] 
;B[pd];W[dd];B[pp];W[dp];B[fq];W[hq];B[fo];W[cn]
;B[ip];W[eq];B[fr];W[qf];B[pi];W[iq];B[jp];W[hp]
;B[ho];W[jq];B[kp];W[lq];B[dm];W[dn];B[en];W[em]
;B[dl];W[el];B[bm];W[ek];B[cj];W[bn];B[fm];W[gl]
;B[dk];W[ej];B[ch];W[cm];B[bl];W[cr];B[in];W[lp]
;B[lo];W[mo];B[mp];W[ln];B[ko];W[np];B[kq];W[mq];E[mp]
;B[kr];W[pn];B[qq];W[qo];B[oq];W[pk];B[nc];W[cf]
;B[ic];W[gc];B[qd];W[md];B[mc];W[kd];B[ei];W[fi]
;B[eh];W[fh];B[fg];W[eg];B[gg];W[dg];B[gi];W[fj]
;B[gh];W[gn];B[fn];W[gm];B[go];W[cl];B[ck];W[bi]
;B[ci];W[bj];B[gj];W[fl];B[ce];W[bf];B[de];W[ee]
;B[ed];W[cd];B[be];W[bd];B[hl];W[bh];B[fd];W[ff]
;B[gf];W[ec];B[fc];W[fb];B[fe];W[ef];B[eb];W[ge]
;B[dc];E[ec];W[gd];B[ec];W[cb];B[gb];W[hb];B[fa];E[fb];W[id]
;B[hc];W[jc];B[ib];W[lg];B[gk];W[bk];B[ng];W[oh]
;B[ok];W[pl];B[mi];W[oi];B[lc];W[kh];B[kj];W[jj]
;B[ki];W[ji];B[jh];W[jg];B[ih];W[mh];B[nh];W[ni]
;B[li];W[lh];B[mk];W[og];B[nf];W[oe];B[lf];W[me]
;B[kf];W[od];B[oc];W[of];B[kg];W[pr];B[or];W[rq]
;B[rp];W[qp];B[rr];W[pq];B[qr];W[op];B[ld];W[ps]
;B[ro];W[rn];B[qs];W[po];E[pp];B[re];W[rf];B[cc];W[bc]
;B[os];W[pp];B[ls];W[ll];B[sf];W[sg];B[se];W[rh]
;B[ml];W[mm];B[er];W[kk];B[lk];W[kl];B[dr];W[cq]
;B[jk];W[jl];B[ik];W[nl];B[nk];W[ol];B[ep];W[dq]
;B[cs];W[bs];B[ds];W[qe];B[rd];W[so];B[sq];E[rq];W[br]
;B[kn];W[le];B[ke];W[nq];B[ms];W[lr];B[ks];W[jm]
;B[jn];W[do];B[pe];W[pf];B[sp];W[sn];B[da];W[ca]
;B[db];W[bb];B[oj];W[pj];B[eo];W[mj];B[mg];E[lg][kh][mh][lh];W[nj]
;B[lj];W[hm];B[im];W[il];B[hk];W[lm]
) 
