( 
;AP[Igc98:0.99f] GM[1] FF[4] 
;C[Igc98 Generated Sgf File] 
PW[Cho Hunhyun] WR[9 dan] 
PB[Kobayashi Koichi] BR[9 dan] 
SZ[19] KM[2.8] HA[0] 
RE[W+2.25] 
;B[pd];W[dd];B[pp];W[dp];B[fq];W[ip];B[cn];W[fp]
;B[gp];W[fo];B[eq];W[dq];B[go];W[dn];B[dm];W[gn]
;B[do];W[ep];B[hq];W[en];B[cl];W[iq];B[ho];W[cj]
;B[dj];W[bm];B[cm];W[di];B[ej];W[ck];B[bl];W[el]
;B[dk];W[ch];B[bp];W[gl];B[io];W[kp];B[ei];W[eh]
;B[fh];W[eg];B[fk];W[fl];B[mp];W[kn];B[im];W[gi]
;B[jl];W[dl];B[bq];W[hj];B[lm];W[mo];B[np];W[mm]
;B[ll];W[om];B[qn];W[oo];B[no];W[mn];B[ql];W[nj]
;B[kj];W[pj];B[nn];W[nm];B[cc];W[dc];B[cd];W[cb]
;B[bi];W[ci];B[bb];W[db];B[bf];W[ba];B[bh];W[cg]
;B[bg];W[kc];B[je];W[nc];B[pf];W[nr];B[pq];W[lq]
;B[id];W[pb];B[qc];W[qb];B[hg];W[ce];B[be];W[he]
;B[gh];W[fi];B[hd];W[ge];B[nd];W[mc];B[ii];W[hi]
;B[hk];W[hl];B[ik];W[gk];B[ij];W[if];B[hh];W[ek]
;B[le];W[qg];B[pg];W[qh];B[qj];W[rj];B[rk];W[qi]
;B[qk];W[oh];B[ng];W[re];B[or];W[nq];B[oq];W[kg]
;B[jf];W[ig];B[ih];W[jg];B[jc];W[kb];B[qe];W[rd]
;B[md];W[ir];B[jo];W[ko];B[lh];W[bc];B[bd];W[ab];E[bb]
;B[bk];W[pm];B[on];W[pn];B[po];W[qm];B[rm];W[rn]
;B[qo];W[si];B[mq];W[mr];B[gd];W[pc];B[qd];W[rc]
;B[fc];W[fe];B[jb];W[cr];B[qf];W[rf];B[ka];W[lg]
;B[hr];W[er];B[fr];W[fa];B[gb];W[sk];B[rl];W[km]
;B[kl];W[lb];B[es];W[co];B[bo];W[dr];B[cf];W[hm]
;B[jm];W[br];B[cp];E[co];W[mf];B[ef];W[lp];B[op];E[oo];W[kd]
;B[nh];W[ke];B[ga];W[nf];B[og];W[aq];B[ks];W[kr]
;B[is];W[ls];B[js];W[mj];B[oi];W[ni];B[ph];E[oh];W[pi]
;B[li];W[ld];B[mg];W[ns];B[de];E[ce];W[os];B[ps];W[me]
;B[oc];W[ob];B[od];W[eb];B[fb];W[ea];B[em];W[fm]
;B[dg];W[ds];B[ap];W[ar];B[jr];W[jq];B[hs];W[fs];E[es]
;B[jp];W[ln];B[bj];W[fj];E[dj][ej][dk][ei][fk];B[ad];W[oe];B[ac];W[bb]
;B[ml];W[pk];B[jh];W[hb];B[hc];W[la];B[ja];W[fd]
;B[kh];W[pl];B[ro];W[ec];B[ha];W[ee];B[gs];W[lk]
;B[kk];W[sl];B[sn];E[rn];W[es];B[nl];W[oj];B[oh];W[eo]
;B[co]
) 
