( 
;AP[Igc98:0.99f] GM[1] FF[4] 
;C[Igc98 Generated Sgf File] 
PW[Cho Hunhyun] WR[9 dan] 
PB[Lee Changho] BR[6 dan] 
SZ[19] KM[5.5] HA[0] 
RE[B+R] 
;B[pd];W[dd];B[pp];W[dp];B[fq];W[ip];B[cq];W[dq]
;B[cp];W[do];B[dr];W[er];B[cr];W[eq];B[cn];W[qn]
;B[nq];W[rp];B[qq];W[qk];B[fc];W[hc];B[fr];W[fp]
;B[gp];W[fo];B[cf];W[fd];B[cc];W[cd];B[dc];W[ed]
;B[fb];W[bd];B[bc];W[gd];B[di];W[cl];B[gi];W[fi]
;B[fh];W[fj];B[gj];W[fk];B[fg];W[hh];B[gh];W[hg]
;B[ij];W[dg];B[cm];W[dj];B[dh];W[cg];B[eg];W[bh]
;B[df];W[bf];B[kj];W[nc];B[qf];W[pb];B[qi];W[qc]
;B[rl];W[rk];B[rn];W[qo];B[ql];W[pl];B[pk];W[pm]
;B[qj];W[ok];B[pj];W[rm];B[rj];W[lq];B[hp];W[iq]
;B[hn];W[hr];B[lp];W[kp];B[mp];W[ko];B[nm];W[nl]
;B[mm];W[lk];B[km];W[rq];B[rr];W[ll];B[lm];W[jk]
;B[kk];W[kl];B[jl];W[ik];B[jj];W[jm];B[il];W[hk]
;B[gk];W[hl];B[im];W[gl];B[jn];E[jm];W[mi];B[fl];W[gm]
;B[fm];W[gn];B[cj];W[hj];B[hi];W[ii];B[ih];W[ji]
;B[ki];W[jh];B[kh];W[jg];B[kg];W[mg];B[kf];W[ie]
;B[le];W[me];B[mj];W[nj];B[ml];W[mk];B[lj];W[nk]
;B[md];W[ne];B[ni];W[nh];B[oi];W[ld];B[kd];W[lc]
;B[kc];W[lb];B[jf];W[ig];E[ih];B[om];W[ol];B[sm];W[qm]
;B[sk];E[qk][rk];W[po];B[oo];W[on];B[no];W[sr];B[qr];W[jc]
;B[ke];W[kb];B[dm];W[dl];B[es];W[co];B[bo];W[bp]
;B[bm];W[ao];B[bn];W[em];B[el];W[en];B[ek];W[fn]
;B[ej];W[gq];B[qp];W[ro];B[sn];W[if];B[so];W[jd]
;B[sp]
) 
