( 
;AP[Igc98:0.99f] GM[1] FF[4] 
;C[Igc98 Generated Sgf File] 
PW[Lee Changho] WR[] 
PB[Cho Hunhyun] BR[] 
SZ[19] KM[5.5] HA[0] 
RE[W+7.5] 
;B[pd];W[dp];B[pp];W[dd];B[fq];W[cn];B[dr];W[qn]
;B[np];W[rp];B[ql];W[qq];B[qo];W[ro];B[pn];W[rn]
;B[pm];W[nc];B[pr];W[qr];B[pf];W[jc];B[cf];W[ch]
;B[cc];W[dc];B[cd];W[de];B[bf];W[eg];B[ke];W[me]
;B[oc];W[nb];B[kc];W[kb];B[jd];W[lc];B[ic];W[kd];E[kc]
;B[jb];W[kc];B[ie];W[jf];B[if];W[je];B[jg];W[id];E[jd]
;B[hd];W[jd];B[ig];W[he];B[ge];W[hf];B[ff];W[gd]
;B[hc];W[fe];B[gf];W[hg];B[gh];W[hh];B[hi];W[ih]
;B[gg];W[jh];B[fd];W[gc];B[fc];W[gb];B[fb];W[ib]
;B[ee];E[fe];W[fi];B[gi];W[df];B[cg];W[dg];B[db];W[eb]
;B[ga];W[hb];E[ic][hd][hc];B[cb];W[fk];B[dk];W[bk];B[di];W[ci]
;B[dh];W[dj];B[cj];W[ej];B[bh];W[ck];B[bi];E[ch][ci];W[fh]
;B[cq];W[ip];B[dm];W[cm];B[ho];W[fm];B[hp];W[iq]
;B[kq];W[kp];B[lp];W[kr];B[ko];W[lq];B[jp];E[kp];W[jq]
;B[kp];W[mr];B[hr];W[io];B[ir];W[jr];B[mq];W[lr]
;B[gl];W[fo];B[nr];W[hq];B[gq];W[hn];B[qs];W[rs]
;B[ps];W[sr];B[oh];W[ni];B[oi];W[qc];B[qd];W[pb]
;B[li];W[lk];B[kk];W[lj];B[ki];W[kj];B[ji];W[jk]
;B[kl];W[jj];B[ii];W[im];B[rc];W[rb];B[pc];W[qb]
;B[kg];W[nk];B[rd];W[pk];B[qk];W[pj];B[qi];W[cp]
;B[bq];W[pi];B[qh];W[pq];B[oq];W[mo];B[mp];W[dq]
;B[eq];W[ap];B[gp];W[kn];B[ob];W[oa];B[ll];W[km]
;B[ml];W[nm];B[ln];W[lm];B[mm];W[mn];B[nn];W[nl]
;B[no];W[jl];B[lo];E[mo][mn];W[br];B[cr];W[aq];B[hl];W[gn]
;B[sb];W[sk];B[rl];W[sl];B[sm];W[rm];B[sj];W[sn];E[sm]
;B[rk];W[is];B[gs];W[bp];B[bs];W[ar];B[fr];W[bj]
;B[pa];W[qa];E[pa];B[ra];W[sa];E[ra];B[jn];W[jm];B[ra];E[sa];W[es]
;B[hs];W[sa];E[ra];B[rr];W[rq];E[rr];B[ra];E[sa];W[js];B[er];W[sa];E[ra]
;B[jo];W[in];B[ra];E[sa];W[fs];B[ds];E[es][fs];W[sa];E[ra];B[hd];W[sc];E[sb]
;B[kh];E[he][hf][hg][hh][ih][jh];W[sd];B[se];W[sb];B[rf];W[ns];B[or];W[kf]
;B[ec];W[oe];B[of];W[ci];E[cj];B[ne];W[nd];B[nf];W[rj]
;B[sm];E[sk][sl];W[qj];B[ri];W[pl];B[qm];W[od];B[oj];W[gj]
;B[hj];W[gk];B[hk];W[mk];B[mn];W[mi];B[nj];W[mj]
;B[om];W[lf];B[fl];W[el];B[ep];W[eo];B[aj];W[ak]
;B[ai];W[pe];B[qe];W[ng];B[ph];W[og];B[pg];W[hc]
;B[he];W[ha];B[fa];W[ce];B[be];W[qp];B[po];W[sl];E[sm]
;B[ei];W[gm]
) 
