( 
;AP[Igc98:0.99f] GM[1] FF[4] 
;C[Igc98 Generated Sgf File] 
PW[Cho Hunhyun] WR[] 
PB[Nie Weiping] BR[] 
SZ[19] KM[7.5] HA[0] 
RE[B+2.5] 
;B[pd];W[dp];B[pq];W[dd];B[qo];W[kq];B[cn];W[fp]
;B[bp];W[cq];B[ck];W[nq];B[fc];W[cf];B[db];W[cc]
;B[ic];W[qf];B[re];W[rf];B[qe];W[of];B[nd];W[qj]
;B[ql];W[lc];B[nf];W[ng];B[mf];W[jc];B[jd];W[kd]
;B[jb];W[kb];B[kc];E[jc];W[dl];B[cl];W[jc];E[kc];B[og];W[oh]
;B[pg];W[pf];B[kc];E[jc];W[nh];B[pi];W[qi];B[jc];W[nc]
;B[oc];W[md];B[ne];W[dn];B[co];W[jn];B[lp];W[lq]
;B[np];W[mp];B[mo];W[mq];B[op];W[pl];B[pm];W[pk]
;B[hl];W[ke];B[kg];W[je];B[hn];W[hp];B[ie];W[ob]
;B[pb];W[mb];B[oa];W[jg];B[jf];W[kf];B[if];W[na]
;B[nb];E[ob];W[lg];B[kh];W[ob];E[nb];B[pa];W[lf];B[mg];W[lh]
;B[mh];W[li];B[mi];W[ph];B[ch];W[cb];B[do];W[eo]
;B[bq];W[en];B[ii];W[pr];B[qr];W[oq];B[pp];W[se]
;B[sd];W[sf];B[rc];W[br];B[ki];W[lj];B[io];W[jp]
;B[kj];W[mj];B[ni];W[fd];B[gd];W[fe];B[ge];W[fg]
;B[oi];W[qh];B[bg];W[or];B[bf];W[be];B[ar];W[bs]
;B[ec];W[qs];B[rr];W[rl];B[rm];W[rk];B[nl];W[kk]
;B[jk];W[jl];B[ik];W[gh];B[kl];W[lk];B[ll];W[ln]
;B[nb];E[ob];W[nk];B[ol];W[mn];B[nn];W[ob];E[nb];B[lo];W[km]
;B[mm];W[nb];B[ka];W[lb];B[lm];W[kn];B[gf];W[dg]
;B[hh];W[sm];B[sn];W[sl];B[qm];W[rs];B[rp];W[dc]
;B[eb];W[gg];B[dh];W[hg];B[gi];W[ig];B[fi];W[gm]
;B[gn];W[dk];B[dj];W[cm];B[bm];W[dm];B[cp];W[dr]
;B[ef];W[ff];B[ce];W[de];B[df];W[cd];E[ce];B[eg];W[ej]
;B[ei];W[bc];B[fm];W[bn];B[bl];W[cj];B[di];W[fk]
;B[gk];W[fl];B[gl];W[fn];B[ip];W[iq];B[go];W[gp]
;B[qk];W[rj];B[fj];W[ih];B[hi];W[as];B[an];W[aq];E[ar]
;B[ap];W[la];B[ja];W[hf];B[he];W[em];E[fm];B[im];W[jm]
;B[ae];W[ad];B[af];W[ek];B[cg];E[dg];W[ce];B[ok];W[pj]
;B[me];W[oe];B[od];W[da];B[ea];W[ca];B[jh];W[fo]
;B[fh];W[kp];B[ml];W[mk];B[oj];W[ar];B[sr]
) 
