( 
;AP[Igc98:0.99f] GM[1] FF[4] 
;C[Igc98 Generated Sgf File] 
PW[Cho Hunhyun] WR[Kiwang] 
PB[Lee Changho] BR[Kisung] 
SZ[19] KM[5.5] HA[0] 
RE[B+0.5] 
;B[qd];W[dd];B[pq];W[oc];B[cp];W[qo];B[ld];W[of]
;B[oe];W[ne];B[pe];W[mc];B[nf];W[me];B[og];W[mf]
;B[ng];W[qk];B[lc];W[id];B[je];W[ie];B[jg];W[if]
;B[mb];W[mg];B[jf];W[jd];B[ke];W[mi];B[ig];W[qh]
;B[oi];W[mk];B[cf];W[cd];B[gg];W[fe];B[dj];W[ep]
;B[hp];W[cq];B[bq];W[dq];B[bo];W[en];B[fo];W[fp]
;B[gp];W[fn];B[gn];W[cn];B[gm];W[bn];B[cr];W[dr]
;B[cs];W[ck];B[dk];W[cj];B[ci];W[cl];B[bi];W[kj]
;B[op];W[ln];B[lp];W[gr];B[hr];W[kb];B[lb];W[re]
;B[qf];W[qc];B[rc];W[rd];B[pc];W[qb];B[pb];W[rb]
;B[rf];W[pm];B[ec];W[gc];B[ef];W[be];B[rp];W[gq]
;B[hq];W[ko];B[kp];W[mo];B[mp];W[bf];B[cb];W[fb]
;B[eb];W[bc];B[ee];W[ed];B[bg];W[fd];B[km];W[kl]
;B[jl];W[ll];B[jj];W[ji];B[kk];W[ki];B[qa];W[ra]
;B[ob];W[sc];E[rc];B[jk];W[nj];B[ii];W[hs];B[dm];W[co]
;B[bp];W[ar];B[br];W[eo];B[dl];W[er];B[fq];W[gs]
;B[fr];W[fs];B[is];W[eq];E[fq][fr];B[ao];W[ir];B[kr];W[ks]
;B[dn];W[do];B[ds];W[al];B[an];W[bm];B[am];W[bj]
;B[ak];W[bk];B[bl];E[al];W[iq];B[ip];W[al];E[bl];B[gb];W[hb]
;B[bl];E[al];W[lr];B[jq];W[js];E[is];B[nr];W[al];E[bl];B[fc];W[ga];E[gb]
;B[bl];E[al];W[nq];B[mr];W[al];E[bl];B[pn];W[aj];E[ak];B[qn];W[qm]
;B[on];W[rm];B[rn];W[sn];B[so];W[sm];B[po];W[jm]
;B[jn];W[im];B[kn];W[hh];B[ih];W[hg];B[gi];W[gh]
;B[fh];W[fg];B[hi];W[gf];E[gg];B[eg];W[el];B[fl];W[em]
;B[nl];W[ol];B[nm];W[oj];B[lm];W[go];E[fo];B[ho];W[ek]
;B[fj];W[lq];B[mq];W[ml];B[mm];W[fk];B[gk];W[pi]
;B[sg];W[rh];B[sh];W[si];B[ri];W[sj];B[ph];W[qi]
;B[lj];W[li];B[nh];W[mh];B[qg];W[kc];B[lk];W[ni]
;B[nk];W[mj];B[ok];W[pk];B[nd];W[md];B[nc];W[ag]
;B[bh];W[eh];B[fi];W[ej];B[ei];W[qe];B[ka];W[ja]
;B[la];W[fm];B[gl];W[se];B[pf];E[of];W[oh];E[oi];B[pg];W[om]
;B[jb];W[ia];B[kd];W[jc];B[pa];W[pd];E[qd];B[ms];W[ls]
;B[kq];W[ff];B[kh];W[dh];B[dg];W[de];B[od];E[oc];W[oi]
;B[qd];E[pd];W[fo];B[pd]
) 
